Introduction to autoTS
…
The errors of each algorithm on the test set

The graphic of the train step

The prepared time series

The list of used algorithm (that you can customize)

The result of this function can be used as direct input of the my.prediction function

## Build the predictions
final.pred <- my.predictions(bestmod = best.algo)
tail(final.pred,24)

## # A tibble: 24 x 4
##    dates      type  actual.value   ets
##    <date>     <chr>        <dbl> <dbl>
##  1 2015-04-01 <NA>        548987    NA
##  2 2015-07-01 <NA>        541185    NA
##  3 2015-10-01 <NA>        566281    NA
##  4 2016-01-01 <NA>        554121    NA
##  5 2016-04-01 <NA>        560873    NA
##  6 2016-07-01 <NA>        546383    NA
##  7 2016-10-01 <NA>        572752    NA
##  8 2017-01-01 <NA>        565221    NA
##  9 2017-04-01 <NA>        573720    NA
## 10 2017-07-01 <NA>        563671    NA
## # … with 14 more rows
…
