Introduction to autoTS
…
The errors of each algorithm on the test set

The graphic of the train step

The prepared time series

The list of used algorithm (that you can customize)

The result of this function can be used as direct input of the my.prediction function

## Build the predictions
final.pred <- my.predictions(bestmod = best.algo)
tail(final.pred,24)

## # A tibble: 24 x 4
##    dates      type  actual.value   ets
##    <date>     <chr>        <dbl> <dbl>
##  1 2016-04-01 <NA>        560873    NA
##  2 2016-07-01 <NA>        546383    NA
##  3 2016-10-01 <NA>        572752    NA
##  4 2017-01-01 <NA>        565221    NA
##  5 2017-04-01 <NA>        573720    NA
##  6 2017-07-01 <NA>        563671    NA
##  7 2017-10-01 <NA>        592453    NA
##  8 2018-01-01 <NA>        580884    NA
##  9 2018-04-01 <NA>        586869    NA
## 10 2018-07-01 <NA>        577904    NA
## # … with 14 more rows
…
